…
Verify that you get the same values using the long `rna` table.

:::::::::::::::  solution

## Solution


```r
rna |>
    filter(gene %in% c("Asl", "Apod", "Cyd2d22")) |>
    filter(time != 4) |> select(expression)
```

```{.output}
# A tibble: 28 × 1
   expression
        <dbl>
 1       1170
 2      36194
 3        361
 4      10347
 5        400
 6       9173
 7        988
 8      29594
 9        836
10      24959
# ℹ 18 more rows
```
…
We can use `select` to specify columns we want to view.


```r
se %>% select(.sample)
```

```{.output}
tidySummarizedExperiment says: Key columns are missing. A data frame is returned for independent data analysis.
```

```{.output}
# A tibble: 32,428 × 1
   .sample   
   <chr>     
 1 GSM2545336
 2 GSM2545336
 3 GSM2545336
 4 GSM2545336
 5 GSM2545336
 6 GSM2545336
 7 GSM2545336
 8 GSM2545336
 9 GSM2545336
10 GSM2545336
# ℹ 32,418 more rows
```
…
```r
se %>%
    group_by(.sample) %>%
    summarise(total_counts=sum(counts))
```

```{.output}
tidySummarizedExperiment says: A data frame is returned for independent data analysis.
```

```{.output}
# A tibble: 22 × 2
   .sample    total_counts
   <chr>             <int>
 1 GSM2545336      3039671
 2 GSM2545337      2602360
 3 GSM2545338      2458618
 4 GSM2545339      2500082
 5 GSM2545340      2479024
 6 GSM2545341      2413723
 7 GSM2545342      2349728
 8 GSM2545343      3105652
 9 GSM2545344      2524137
10 GSM2545345      2506038
# ℹ 12 more rows
```
…
