…
~~~
rna <- read_csv("data/rnaseq.csv")

## view the data
rna
~~~
{: .language-r}



~~~
# A tibble: 32,428 × 19
   gene    sample  expre…¹ organ…²   age sex   infec…³ strain  time tissue mouse
   <chr>   <chr>     <dbl> <chr>   <dbl> <chr> <chr>   <chr>  <dbl> <chr>  <dbl>
 1 Asl     GSM254…    1170 Mus mu…     8 Fema… Influe… C57BL…     8 Cereb…    14
 2 Apod    GSM254…   36194 Mus mu…     8 Fema… Influe… C57BL…     8 Cereb…    14
 3 Cyp2d22 GSM254…    4060 Mus mu…     8 Fema… Influe… C57BL…     8 Cereb…    14
 4 Klk6    GSM254…     287 Mus mu…     8 Fema… Influe… C57BL…     8 Cereb…    14
 5 Fcrls   GSM254…      85 Mus mu…     8 Fema… Influe… C57BL…     8 Cereb…    14
 6 Slc2a4  GSM254…     782 Mus mu…     8 Fema… Influe… C57BL…     8 Cereb…    14
 7 Exd2    GSM254…    1619 Mus mu…     8 Fema… Influe… C57BL…     8 Cereb…    14
 8 Gjc2    GSM254…     288 Mus mu…     8 Fema… Influe… C57BL…     8 Cereb…    14
 9 Plp1    GSM254…   43217 Mus mu…     8 Fema… Influe… C57BL…     8 Cereb…    14
10 Gnb4    GSM254…    1071 Mus mu…     8 Fema… Influe… C57BL…     8 Cereb…    14
# … with 32,418 more rows, 8 more variables: ENTREZID <dbl>, product <chr>,
#   ensembl_gene_id <chr>, external_synonym <chr>, chromosome_name <chr>,
#   gene_biotype <chr>, phenotype_description <chr>,
#   hsapiens_homolog_associated_gene_name <chr>, and abbreviated variable names
#   ¹​expression, ²​organism, ³​infection
…
To select columns of a data frame, use `select()`. The first argument
to this function is the data frame (`rna`), and the subsequent
arguments are the columns to keep.


~~~
select(rna, gene, sample, tissue, expression)
~~~
{: .language-r}



~~~
# A tibble: 32,428 × 4
   gene    sample     tissue     expression
   <chr>   <chr>      <chr>           <dbl>
 1 Asl     GSM2545336 Cerebellum       1170
 2 Apod    GSM2545336 Cerebellum      36194
 3 Cyp2d22 GSM2545336 Cerebellum       4060
 4 Klk6    GSM2545336 Cerebellum        287
 5 Fcrls   GSM2545336 Cerebellum         85
 6 Slc2a4  GSM2545336 Cerebellum        782
 7 Exd2    GSM2545336 Cerebellum       1619
 8 Gjc2    GSM2545336 Cerebellum        288
 9 Plp1    GSM2545336 Cerebellum      43217
10 Gnb4    GSM2545336 Cerebellum       1071
# … with 32,418 more rows
…
To select all columns *except* certain ones, put a "-" in front of
the variable to exclude it.


~~~
select(rna, -tissue, -organism)
~~~
{: .language-r}



~~~
# A tibble: 32,428 × 17
   gene    sample expre…¹   age sex   infec…² strain  time mouse ENTRE…³ product
   <chr>   <chr>    <dbl> <dbl> <chr> <chr>   <chr>  <dbl> <dbl>   <dbl> <chr>  
 1 Asl     GSM25…    1170     8 Fema… Influe… C57BL…     8    14  109900 argini…
 2 Apod    GSM25…   36194     8 Fema… Influe… C57BL…     8    14   11815 apolip…
 3 Cyp2d22 GSM25…    4060     8 Fema… Influe… C57BL…     8    14   56448 cytoch…
 4 Klk6    GSM25…     287     8 Fema… Influe… C57BL…     8    14   19144 kallik…
 5 Fcrls   GSM25…      85     8 Fema… Influe… C57BL…     8    14   80891 Fc rec…
 6 Slc2a4  GSM25…     782     8 Fema… Influe… C57BL…     8    14   20528 solute…
 7 Exd2    GSM25…    1619     8 Fema… Influe… C57BL…     8    14   97827 exonuc…
 8 Gjc2    GSM25…     288     8 Fema… Influe… C57BL…     8    14  118454 gap ju…
 9 Plp1    GSM25…   43217     8 Fema… Influe… C57BL…     8    14   18823 proteo…
10 Gnb4    GSM25…    1071     8 Fema… Influe… C57BL…     8    14   14696 guanin…
# … with 32,418 more rows, 6 more variables: ensembl_gene_id <chr>,
#   external_synonym <chr>, chromosome_name <chr>, gene_biotype <chr>,
#   phenotype_description <chr>, hsapiens_homolog_associated_gene_name <chr>,
#   and abbreviated variable names ¹​expression, ²​infection, ³​ENTREZID
…
This will select all the variables in `rna` except `tissue`
and `organism`.

To choose rows based on a specific criteria, use `filter()`:


~~~
filter(rna, sex == "Male")
~~~
{: .language-r}



~~~
# A tibble: 14,740 × 19
   gene    sample  expre…¹ organ…²   age sex   infec…³ strain  time tissue mouse
   <chr>   <chr>     <dbl> <chr>   <dbl> <chr> <chr>   <chr>  <dbl> <chr>  <dbl>
 1 Asl     GSM254…     626 Mus mu…     8 Male  Influe… C57BL…     4 Cereb…    18
 2 Apod    GSM254…   13021 Mus mu…     8 Male  Influe… C57BL…     4 Cereb…    18
 3 Cyp2d22 GSM254…    2171 Mus mu…     8 Male  Influe… C57BL…     4 Cereb…    18
 4 Klk6    GSM254…     448 Mus mu…     8 Male  Influe… C57BL…     4 Cereb…    18
 5 Fcrls   GSM254…     180 Mus mu…     8 Male  Influe… C57BL…     4 Cereb…    18
 6 Slc2a4  GSM254…     313 Mus mu…     8 Male  Influe… C57BL…     4 Cereb…    18
 7 Exd2    GSM254…    2366 Mus mu…     8 Male  Influe… C57BL…     4 Cereb…    18
 8 Gjc2    GSM254…     310 Mus mu…     8 Male  Influe… C57BL…     4 Cereb…    18
 9 Plp1    GSM254…   53126 Mus mu…     8 Male  Influe… C57BL…     4 Cereb…    18
10 Gnb4    GSM254…    1355 Mus mu…     8 Male  Influe… C57BL…     4 Cereb…    18
# … with 14,730 more rows, 8 more variables: ENTREZID <dbl>, product <chr>,
#   ensembl_gene_id <chr>, external_synonym <chr>, chromosome_name <chr>,
#   gene_biotype <chr>, phenotype_description <chr>,
#   hsapiens_homolog_associated_gene_name <chr>, and abbreviated variable names
#   ¹​expression, ²​organism, ³​infection
~~~
{: .output}



~~~
filter(rna, sex == "Male" & infection == "NonInfected")
~~~
{: .language-r}



~~~
# A tibble: 4,422 × 19
   gene    sample  expre…¹ organ…²   age sex   infec…³ strain  time tissue mouse
   <chr>   <chr>     <dbl> <chr>   <dbl> <chr> <chr>   <chr>  <dbl> <chr>  <dbl>
 1 Asl     GSM254…     535 Mus mu…     8 Male  NonInf… C57BL…     0 Cereb…    11
 2 Apod    GSM254…   13668 Mus mu…     8 Male  NonInf… C57BL…     0 Cereb…    11
 3 Cyp2d22 GSM254…    2008 Mus mu…     8 Male  NonInf… C57BL…     0 Cereb…    11
 4 Klk6    GSM254…    1101 Mus mu…     8 Male  NonInf… C57BL…     0 Cereb…    11
 5 Fcrls   GSM254…     375 Mus mu…     8 Male  NonInf… C57BL…     0 Cereb…    11
 6 Slc2a4  GSM254…     249 Mus mu…     8 Male  NonInf… C57BL…     0 Cereb…    11
 7 Exd2    GSM254…    3126 Mus mu…     8 Male  NonInf… C57BL…     0 Cereb…    11
 8 Gjc2    GSM254…     791 Mus mu…     8 Male  NonInf… C57BL…     0 Cereb…    11
 9 Plp1    GSM254…   98658 Mus mu…     8 Male  NonInf… C57BL…     0 Cereb…    11
10 Gnb4    GSM254…    2437 Mus mu…     8 Male  NonInf… C57BL…     0 Cereb…    11
# … with 4,412 more rows, 8 more variables: ENTREZID <dbl>, product <chr>,
#   ensembl_gene_id <chr>, external_synonym <chr>, chromosome_name <chr>,
#   gene_biotype <chr>, phenotype_description <chr>,
#   hsapiens_homolog_associated_gene_name <chr>, and abbreviated variable names
#   ¹​expression, ²​organism, ³​infection
…
~~~
rna_NA <- filter(rna, is.na(hsapiens_homolog_associated_gene_name))
select(rna_NA, gene, hsapiens_homolog_associated_gene_name)
~~~
{: .language-r}



~~~
# A tibble: 4,290 × 2
   gene     hsapiens_homolog_associated_gene_name
   <chr>    <chr>                                
 1 Prodh    <NA>                                 
 2 Tssk5    <NA>                                 
 3 Vmn2r1   <NA>                                 
 4 Gm10654  <NA>                                 
 5 Hexa     <NA>                                 
 6 Sult1a1  <NA>                                 
 7 Gm6277   <NA>                                 
 8 Tmem198b <NA>                                 
 9 Adam1a   <NA>                                 
10 Ebp      <NA>                                 
# … with 4,280 more rows
…
If we want to keep only mouse gene that have a human homolog, we can insert a "!"
symbol that negates the result, so we're asking for every row where
hsapiens_homolog_associated_gene_name *is not* an `NA`.


~~~
rna_no_NA <- filter(rna, !is.na(hsapiens_homolog_associated_gene_name))
select(rna_no_NA, gene, hsapiens_homolog_associated_gene_name)
~~~
{: .language-r}



~~~
# A tibble: 28,138 × 2
   gene    hsapiens_homolog_associated_gene_name
   <chr>   <chr>                                
 1 Asl     ASL                                  
 2 Apod    APOD                                 
 3 Cyp2d22 CYP2D6                               
 4 Klk6    KLK6                                 
 5 Fcrls   FCRL2                                
 6 Slc2a4  SLC2A4                               
 7 Exd2    EXD2                                 
 8 Gjc2    GJC2                                 
 9 Plp1    PLP1                                 
10 Gnb4    GNB4                                 
# … with 28,128 more rows
…
With intermediate steps, you create a temporary data frame and use
that as input to the next function, like this:


~~~
rna2 <- filter(rna, sex == "Male")
rna3 <- select(rna2, gene, sample, tissue, expression)
rna3
~~~
{: .language-r}



~~~
# A tibble: 14,740 × 4
   gene    sample     tissue     expression
   <chr>   <chr>      <chr>           <dbl>
 1 Asl     GSM2545340 Cerebellum        626
 2 Apod    GSM2545340 Cerebellum      13021
 3 Cyp2d22 GSM2545340 Cerebellum       2171
 4 Klk6    GSM2545340 Cerebellum        448
 5 Fcrls   GSM2545340 Cerebellum        180
 6 Slc2a4  GSM2545340 Cerebellum        313
 7 Exd2    GSM2545340 Cerebellum       2366
 8 Gjc2    GSM2545340 Cerebellum        310
 9 Plp1    GSM2545340 Cerebellum      53126
10 Gnb4    GSM2545340 Cerebellum       1355
# … with 14,730 more rows
…
You can also nest functions (i.e. one function inside of another), like this:


~~~
rna3 <- select(filter(rna, sex == "Male"), gene, sample, tissue, expression)
rna3
~~~
{: .language-r}



~~~
# A tibble: 14,740 × 4
   gene    sample     tissue     expression
   <chr>   <chr>      <chr>           <dbl>
 1 Asl     GSM2545340 Cerebellum        626
 2 Apod    GSM2545340 Cerebellum      13021
 3 Cyp2d22 GSM2545340 Cerebellum       2171
 4 Klk6    GSM2545340 Cerebellum        448
 5 Fcrls   GSM2545340 Cerebellum        180
 6 Slc2a4  GSM2545340 Cerebellum        313
 7 Exd2    GSM2545340 Cerebellum       2366
 8 Gjc2    GSM2545340 Cerebellum        310
 9 Plp1    GSM2545340 Cerebellum      53126
10 Gnb4    GSM2545340 Cerebellum       1355
# … with 14,730 more rows
…
~~~
rna %>%
  filter(sex == "Male") %>%
  select(gene, sample, tissue, expression)
~~~
{: .language-r}



~~~
# A tibble: 14,740 × 4
   gene    sample     tissue     expression
   <chr>   <chr>      <chr>           <dbl>
 1 Asl     GSM2545340 Cerebellum        626
 2 Apod    GSM2545340 Cerebellum      13021
 3 Cyp2d22 GSM2545340 Cerebellum       2171
 4 Klk6    GSM2545340 Cerebellum        448
 5 Fcrls   GSM2545340 Cerebellum        180
 6 Slc2a4  GSM2545340 Cerebellum        313
 7 Exd2    GSM2545340 Cerebellum       2366
 8 Gjc2    GSM2545340 Cerebellum        310
 9 Plp1    GSM2545340 Cerebellum      53126
10 Gnb4    GSM2545340 Cerebellum       1355
# … with 14,730 more rows
…
~~~
rna3 <- rna %>%
  filter(sex == "Male") %>%
  select(gene, sample, tissue, expression)

rna3
~~~
{: .language-r}



~~~
# A tibble: 14,740 × 4
   gene    sample     tissue     expression
   <chr>   <chr>      <chr>           <dbl>
 1 Asl     GSM2545340 Cerebellum        626
 2 Apod    GSM2545340 Cerebellum      13021
 3 Cyp2d22 GSM2545340 Cerebellum       2171
 4 Klk6    GSM2545340 Cerebellum        448
 5 Fcrls   GSM2545340 Cerebellum        180
 6 Slc2a4  GSM2545340 Cerebellum        313
 7 Exd2    GSM2545340 Cerebellum       2366
 8 Gjc2    GSM2545340 Cerebellum        310
 9 Plp1    GSM2545340 Cerebellum      53126
10 Gnb4    GSM2545340 Cerebellum       1355
# … with 14,730 more rows
…
To create a new column of time in hours:


~~~
rna %>%
  mutate(time_hours = time * 24) %>%
  select(time, time_hours)
~~~
{: .language-r}



~~~
# A tibble: 32,428 × 2
    time time_hours
   <dbl>      <dbl>
 1     8        192
 2     8        192
 3     8        192
 4     8        192
 5     8        192
 6     8        192
 7     8        192
 8     8        192
 9     8        192
10     8        192
# … with 32,418 more rows
…
You can also create a second new column based on the first new column within the same call of `mutate()`:


~~~
rna %>%
  mutate(time_hours = time * 24,
         time_mn = time_hours * 60) %>%
  select(time, time_hours, time_mn)
~~~
{: .language-r}



~~~
# A tibble: 32,428 × 3
    time time_hours time_mn
   <dbl>      <dbl>   <dbl>
 1     8        192   11520
 2     8        192   11520
 3     8        192   11520
 4     8        192   11520
 5     8        192   11520
 6     8        192   11520
 7     8        192   11520
 8     8        192   11520
 9     8        192   11520
10     8        192   11520
# … with 32,418 more rows
…
> >
> > 
> > ~~~
> > rna %>%
> >   filter(chromosome_name != "X", chromosome_name != "Y") %>%
> >   mutate(log_expression = log(expression)) %>%
> >   select(gene, chromosome_name, phenotype_description, sample, expression, log_expression) %>%
> >   filter(!is.na(phenotype_description))
> > ~~~
> > {: .language-r}
> > 
> > 
> > 
> > ~~~
> > # A tibble: 21,054 × 6
> >    gene    chromosome_name phenotype_description          sample expre…¹ log_e…²
> >    <chr>   <chr>           <chr>                          <chr>    <dbl>   <dbl>
> >  1 Asl     5               abnormal circulating amino ac… GSM25…    1170    7.06
> >  2 Apod    16              abnormal lipid homeostasis     GSM25…   36194   10.5 
> >  3 Cyp2d22 15              abnormal skin morphology       GSM25…    4060    8.31
> >  4 Klk6    7               abnormal cytokine level        GSM25…     287    5.66
> >  5 Fcrls   3               decreased CD8-positive alpha-… GSM25…      85    4.44
> >  6 Slc2a4  11              abnormal circulating glucose … GSM25…     782    6.66
> >  7 Gjc2    11              Purkinje cell degeneration     GSM25…     288    5.66
> >  8 Gnb4    3               decreased anxiety-related res… GSM25…    1071    6.98
> >  9 Tnc     4               abnormal CNS synaptic transmi… GSM25…     219    5.39
> > 10 Trf     9               abnormal circulating phosphat… GSM25…    9719    9.18
> > # … with 21,044 more rows, and abbreviated variable names ¹​expression,
> > #   ²​log_expression
…
~~~
rna %>%
  group_by(gene)
~~~
{: .language-r}



~~~
# A tibble: 32,428 × 19
# Groups:   gene [1,474]
   gene    sample  expre…¹ organ…²   age sex   infec…³ strain  time tissue mouse
   <chr>   <chr>     <dbl> <chr>   <dbl> <chr> <chr>   <chr>  <dbl> <chr>  <dbl>
 1 Asl     GSM254…    1170 Mus mu…     8 Fema… Influe… C57BL…     8 Cereb…    14
 2 Apod    GSM254…   36194 Mus mu…     8 Fema… Influe… C57BL…     8 Cereb…    14
 3 Cyp2d22 GSM254…    4060 Mus mu…     8 Fema… Influe… C57BL…     8 Cereb…    14
 4 Klk6    GSM254…     287 Mus mu…     8 Fema… Influe… C57BL…     8 Cereb…    14
 5 Fcrls   GSM254…      85 Mus mu…     8 Fema… Influe… C57BL…     8 Cereb…    14
 6 Slc2a4  GSM254…     782 Mus mu…     8 Fema… Influe… C57BL…     8 Cereb…    14
 7 Exd2    GSM254…    1619 Mus mu…     8 Fema… Influe… C57BL…     8 Cereb…    14
 8 Gjc2    GSM254…     288 Mus mu…     8 Fema… Influe… C57BL…     8 Cereb…    14
 9 Plp1    GSM254…   43217 Mus mu…     8 Fema… Influe… C57BL…     8 Cereb…    14
10 Gnb4    GSM254…    1071 Mus mu…     8 Fema… Influe… C57BL…     8 Cereb…    14
# … with 32,418 more rows, 8 more variables: ENTREZID <dbl>, product <chr>,
#   ensembl_gene_id <chr>, external_synonym <chr>, chromosome_name <chr>,
#   gene_biotype <chr>, phenotype_description <chr>,
#   hsapiens_homolog_associated_gene_name <chr>, and abbreviated variable names
#   ¹​expression, ²​organism, ³​infection
…
We could similarly decide to group the tibble by the samples:


~~~
rna %>%
  group_by(sample)
~~~
{: .language-r}



~~~
# A tibble: 32,428 × 19
# Groups:   sample [22]
   gene    sample  expre…¹ organ…²   age sex   infec…³ strain  time tissue mouse
   <chr>   <chr>     <dbl> <chr>   <dbl> <chr> <chr>   <chr>  <dbl> <chr>  <dbl>
 1 Asl     GSM254…    1170 Mus mu…     8 Fema… Influe… C57BL…     8 Cereb…    14
 2 Apod    GSM254…   36194 Mus mu…     8 Fema… Influe… C57BL…     8 Cereb…    14
 3 Cyp2d22 GSM254…    4060 Mus mu…     8 Fema… Influe… C57BL…     8 Cereb…    14
 4 Klk6    GSM254…     287 Mus mu…     8 Fema… Influe… C57BL…     8 Cereb…    14
 5 Fcrls   GSM254…      85 Mus mu…     8 Fema… Influe… C57BL…     8 Cereb…    14
 6 Slc2a4  GSM254…     782 Mus mu…     8 Fema… Influe… C57BL…     8 Cereb…    14
 7 Exd2    GSM254…    1619 Mus mu…     8 Fema… Influe… C57BL…     8 Cereb…    14
 8 Gjc2    GSM254…     288 Mus mu…     8 Fema… Influe… C57BL…     8 Cereb…    14
 9 Plp1    GSM254…   43217 Mus mu…     8 Fema… Influe… C57BL…     8 Cereb…    14
10 Gnb4    GSM254…    1071 Mus mu…     8 Fema… Influe… C57BL…     8 Cereb…    14
# … with 32,418 more rows, 8 more variables: ENTREZID <dbl>, product <chr>,
#   ensembl_gene_id <chr>, external_synonym <chr>, chromosome_name <chr>,
#   gene_biotype <chr>, phenotype_description <chr>,
#   hsapiens_homolog_associated_gene_name <chr>, and abbreviated variable names
#   ¹​expression, ²​organism, ³​infection
…
~~~
rna %>%
  group_by(gene) %>%
  summarize(mean_expression = mean(expression))
~~~
{: .language-r}



~~~
# A tibble: 1,474 × 2
   gene    mean_expression
   <chr>             <dbl>
 1 Aamp            4751.  
 2 Abca12             4.55
 3 Abcc8           2498.  
 4 Abhd14a          525.  
 5 Abi2            4909.  
 6 Abi3bp          1002.  
 7 Abl2            2124.  
 8 Acadl           2053.  
 9 Acap3           3536.  
10 Acbd4           1431.  
# … with 1,464 more rows
…
We could also want to calculate the mean expression levels of all genes in each sample:


~~~
rna %>%
  group_by(sample) %>%
  summarize(mean_expression = mean(expression))
~~~
{: .language-r}



~~~
# A tibble: 22 × 2
   sample     mean_expression
   <chr>                <dbl>
 1 GSM2545336           2062.
 2 GSM2545337           1766.
 3 GSM2545338           1668.
 4 GSM2545339           1696.
 5 GSM2545340           1682.
 6 GSM2545341           1638.
 7 GSM2545342           1594.
 8 GSM2545343           2107.
 9 GSM2545344           1712.
10 GSM2545345           1700.
# … with 12 more rows
…
~~~
`summarise()` has grouped output by 'gene', 'infection'. You can override using
the `.groups` argument.
~~~
{: .output}



~~~
# A tibble: 4,422 × 4
# Groups:   gene, infection [2,948]
   gene    infection    time mean_expression
   <chr>   <chr>       <dbl>           <dbl>
 1 Aamp    InfluenzaA      4         4870   
 2 Aamp    InfluenzaA      8         4763.  
 3 Aamp    NonInfected     0         4603.  
 4 Abca12  InfluenzaA      4            4.25
 5 Abca12  InfluenzaA      8            4.14
 6 Abca12  NonInfected     0            5.29
 7 Abcc8   InfluenzaA      4         2609.  
 8 Abcc8   InfluenzaA      8         2292.  
 9 Abcc8   NonInfected     0         2576.  
10 Abhd14a InfluenzaA      4          547.  
# … with 4,412 more rows
…
~~~
`summarise()` has grouped output by 'gene', 'infection'. You can override using
the `.groups` argument.
~~~
{: .output}



~~~
# A tibble: 4,422 × 5
# Groups:   gene, infection [2,948]
   gene    infection    time mean_expression median_expression
   <chr>   <chr>       <dbl>           <dbl>             <dbl>
 1 Aamp    InfluenzaA      4         4870               4708  
 2 Aamp    InfluenzaA      8         4763.              4813  
 3 Aamp    NonInfected     0         4603.              4717  
 4 Abca12  InfluenzaA      4            4.25               4.5
 5 Abca12  InfluenzaA      8            4.14               4  
 6 Abca12  NonInfected     0            5.29               5  
 7 Abcc8   InfluenzaA      4         2609.              2424. 
 8 Abcc8   InfluenzaA      8         2292.              2224  
 9 Abcc8   NonInfected     0         2576.              2578  
10 Abhd14a InfluenzaA      4          547.               523  
# … with 4,412 more rows
…
