…
[^up]: UniProt is the protein information database. Its mission is to *provide the scientific community with a comprehensive, high-quality and freely accessible resource of protein sequence and functional information*.


~~~
jdf1
~~~
{: .language-r}



~~~
# A tibble: 25 × 3
   uniprot  organelle                             entry      
   <chr>    <chr>                                 <chr>      
 1 P26039   Actin cytoskeleton                    TLN1_MOUSE 
 2 Q99PL5   Endoplasmic reticulum/Golgi apparatus RRBP1_MOUSE
 3 Q6PB66   Mitochondrion                         LPPRC_MOUSE
 4 P11276   Extracellular matrix                  FINC_MOUSE 
 5 Q6PR54   Nucleus - Chromatin                   RIF1_MOUSE 
 6 Q05793   Extracellular matrix                  PGBM_MOUSE 
 7 P19096   Cytosol                               FAS_MOUSE  
 8 Q9JKF1   Plasma membrane                       IQGA1_MOUSE
 9 Q9QZQ1-2 Plasma membrane                       AFAD_MOUSE 
10 Q6NS46   Nucleus - Non-chromatin               RRP5_MOUSE 
# … with 15 more rows
…
~~~
jdf2
~~~
{: .language-r}



~~~
# A tibble: 25 × 4
   gene_name description                                      uniprot organism
   <chr>     <chr>                                            <chr>   <chr>   
 1 Iqgap1    Ras GTPase-activating-like protein IQGAP1        Q9JKF1  Mmus    
 2 Hspa5     78 kDa glucose-regulated protein                 P20029  Mmus    
 3 Pdcd11    Protein RRP5 homolog                             Q6NS46  Mmus    
 4 Tfrc      Transferrin receptor protein 1                   Q62351  Mmus    
 5 Hspd1     60 kDa heat shock protein, mitochondrial         P63038  Mmus    
 6 Tln1      Talin-1                                          P26039  Mmus    
 7 Smc1a     Structural maintenance of chromosomes protein 1A Q9CU62  Mmus    
 8 Lamc1     Laminin subunit gamma-1                          P02468  Mmus    
 9 Hsp90b1   Endoplasmin                                      P08113  Mmus    
10 Mia3      Melanoma inhibitory activity protein 3           Q8BI84  Mmus    
# … with 15 more rows
…
~~~
Joining, by = "uniprot"
~~~
{: .output}



~~~
# A tibble: 25 × 6
   uniprot  organelle                       entry gene_name description organism
   <chr>    <chr>                           <chr> <chr>     <chr>       <chr>   
 1 P26039   Actin cytoskeleton              TLN1… Tln1      Talin-1     Mmus    
 2 Q99PL5   Endoplasmic reticulum/Golgi ap… RRBP… Rrbp1     Ribosome-b… Mmus    
 3 Q6PB66   Mitochondrion                   LPPR… Lrpprc    Leucine-ri… Mmus    
 4 P11276   Extracellular matrix            FINC… Fn1       Fibronectin Mmus    
 5 Q6PR54   Nucleus - Chromatin             RIF1… Rif1      Telomere-a… Mmus    
 6 Q05793   Extracellular matrix            PGBM… Hspg2     Basement m… Mmus    
 7 P19096   Cytosol                         FAS_… Fasn      Fatty acid… Mmus    
 8 Q9JKF1   Plasma membrane                 IQGA… Iqgap1    Ras GTPase… Mmus    
 9 Q9QZQ1-2 Plasma membrane                 AFAD… Mllt4     Isoform 1 … Mmus    
10 Q6NS46   Nucleus - Non-chromatin         RRP5… Pdcd11    Protein RR… Mmus    
# … with 15 more rows
…
Now let's look at a third table, `jdf3`. It also contains the column uniProt,
but it is written differently!


~~~
jdf3
~~~
{: .language-r}



~~~
# A tibble: 25 × 4
   gene_name description                                      UniProt organism
   <chr>     <chr>                                            <chr>   <chr>   
 1 Iqgap1    Ras GTPase-activating-like protein IQGAP1        Q9JKF1  Mmus    
 2 Hspa5     78 kDa glucose-regulated protein                 P20029  Mmus    
 3 Pdcd11    Protein RRP5 homolog                             Q6NS46  Mmus    
 4 Tfrc      Transferrin receptor protein 1                   Q62351  Mmus    
 5 Hspd1     60 kDa heat shock protein, mitochondrial         P63038  Mmus    
 6 Tln1      Talin-1                                          P26039  Mmus    
 7 Smc1a     Structural maintenance of chromosomes protein 1A Q9CU62  Mmus    
 8 Lamc1     Laminin subunit gamma-1                          P02468  Mmus    
 9 Hsp90b1   Endoplasmin                                      P08113  Mmus    
10 Mia3      Melanoma inhibitory activity protein 3           Q8BI84  Mmus    
# … with 15 more rows
…
~~~
full_join(jdf1, jdf3, by = c("uniprot" = "UniProt"))
~~~
{: .language-r}



~~~
# A tibble: 25 × 6
   uniprot  organelle                       entry gene_name description organism
   <chr>    <chr>                           <chr> <chr>     <chr>       <chr>   
 1 P26039   Actin cytoskeleton              TLN1… Tln1      Talin-1     Mmus    
 2 Q99PL5   Endoplasmic reticulum/Golgi ap… RRBP… Rrbp1     Ribosome-b… Mmus    
 3 Q6PB66   Mitochondrion                   LPPR… Lrpprc    Leucine-ri… Mmus    
 4 P11276   Extracellular matrix            FINC… Fn1       Fibronectin Mmus    
 5 Q6PR54   Nucleus - Chromatin             RIF1… Rif1      Telomere-a… Mmus    
 6 Q05793   Extracellular matrix            PGBM… Hspg2     Basement m… Mmus    
 7 P19096   Cytosol                         FAS_… Fasn      Fatty acid… Mmus    
 8 Q9JKF1   Plasma membrane                 IQGA… Iqgap1    Ras GTPase… Mmus    
 9 Q9QZQ1-2 Plasma membrane                 AFAD… Mllt4     Isoform 1 … Mmus    
10 Q6NS46   Nucleus - Non-chromatin         RRP5… Pdcd11    Protein RR… Mmus    
# … with 15 more rows
…
