…
- **A table describing the samples**


~~~
sample_metadata
~~~
{: .language-r}



~~~
# A tibble: 22 × 9
   sample     organism       age sex    infection   strain   time tissue   mouse
   <chr>      <chr>        <dbl> <chr>  <chr>       <chr>   <dbl> <chr>    <dbl>
 1 GSM2545336 Mus musculus     8 Female InfluenzaA  C57BL/6     8 Cerebel…    14
 2 GSM2545337 Mus musculus     8 Female NonInfected C57BL/6     0 Cerebel…     9
 3 GSM2545338 Mus musculus     8 Female NonInfected C57BL/6     0 Cerebel…    10
 4 GSM2545339 Mus musculus     8 Female InfluenzaA  C57BL/6     4 Cerebel…    15
 5 GSM2545340 Mus musculus     8 Male   InfluenzaA  C57BL/6     4 Cerebel…    18
 6 GSM2545341 Mus musculus     8 Male   InfluenzaA  C57BL/6     8 Cerebel…     6
 7 GSM2545342 Mus musculus     8 Female InfluenzaA  C57BL/6     8 Cerebel…     5
 8 GSM2545343 Mus musculus     8 Male   NonInfected C57BL/6     0 Cerebel…    11
 9 GSM2545344 Mus musculus     8 Female InfluenzaA  C57BL/6     4 Cerebel…    22
10 GSM2545345 Mus musculus     8 Male   InfluenzaA  C57BL/6     4 Cerebel…    13
# … with 12 more rows
~~~
{: .output}

- **A table describing the genes**


~~~
gene_metadata
~~~
{: .language-r}



~~~
# A tibble: 1,474 × 9
   gene    ENTREZID product      ensem…¹ exter…² chrom…³ gene_…⁴ pheno…⁵ hsapi…⁶
   <chr>      <dbl> <chr>        <chr>   <chr>   <chr>   <chr>   <chr>   <chr>  
 1 Asl       109900 argininosuc… ENSMUS… 251000… 5       protei… abnorm… ASL    
 2 Apod       11815 apolipoprot… ENSMUS… <NA>    16      protei… abnorm… APOD   
 3 Cyp2d22    56448 cytochrome … ENSMUS… 2D22    15      protei… abnorm… CYP2D6 
 4 Klk6       19144 kallikrein … ENSMUS… Bssp    7       protei… abnorm… KLK6   
 5 Fcrls      80891 Fc receptor… ENSMUS… 281043… 3       protei… decrea… FCRL2  
 6 Slc2a4     20528 solute carr… ENSMUS… Glut-4  11      protei… abnorm… SLC2A4 
 7 Exd2       97827 exonuclease… ENSMUS… 493053… 12      protei… <NA>    EXD2   
 8 Gjc2      118454 gap junctio… ENSMUS… B23038… 11      protei… Purkin… GJC2   
 9 Plp1       18823 proteolipid… ENSMUS… DM20    X       protei… abnorm… PLP1   
10 Gnb4       14696 guanine nuc… ENSMUS… 672045… 3       protei… decrea… GNB4   
# … with 1,464 more rows, and abbreviated variable names ¹​ensembl_gene_id,
#   ²​external_synonym, ³​chromosome_name, ⁴​gene_biotype, ⁵​phenotype_description,
#   ⁶​hsapiens_homolog_associated_gene_name
…
~~~
tidySummarizedExperiment says: Key columns are missing. A data frame is returned for independent data analysis.
~~~
{: .output}



~~~
# A tibble: 32,428 × 1
   .sample   
   <chr>     
 1 GSM2545336
 2 GSM2545336
 3 GSM2545336
 4 GSM2545336
 5 GSM2545336
 6 GSM2545336
 7 GSM2545336
 8 GSM2545336
 9 GSM2545336
10 GSM2545336
# … with 32,418 more rows
…
~~~
tidySummarizedExperiment says: A data frame is returned for independent data analysis.
~~~
{: .output}



~~~
# A tibble: 22 × 2
   .sample    total_counts
   <chr>             <dbl>
 1 GSM2545336      3039671
 2 GSM2545337      2602360
 3 GSM2545338      2458618
 4 GSM2545339      2500082
 5 GSM2545340      2479024
 6 GSM2545341      2413723
 7 GSM2545342      2349728
 8 GSM2545343      3105652
 9 GSM2545344      2524137
10 GSM2545345      2506038
# … with 12 more rows
…
