Introduction to data analysis with R and Bioconductor: Manipulating and analysing data with dplyr
…
WARNING

Warning: One or more parsing issues, call `problems()` on your data frame for details,
e.g.:
  dat <- vroom(...)
  problems(dat)

R

## view the data
rna

OUTPUT

# A tibble: 1,129 × 1
   `<!DOCTYPE html>`                                                            
   <chr>                                                                        
 1 "<html lang=\"en\" data-color-mode=\"auto\" data-light-theme=\"light\" data-…
 2 "<head>"                                                                     
 3 "<meta charset=\"utf-8\">"                                                   
 4 "<link rel=\"dns-prefetch\" href=\"https://github.githubassets.com\">"       
 5 "<link rel=\"dns-prefetch\" href=\"https://avatars.githubusercontent.com\">" 
 6 "<link rel=\"dns-prefetch\" href=\"https://github-cloud.s3.amazonaws.com\">" 
 7 "<link rel=\"dns-prefetch\" href=\"https://user-images.githubusercontent.com…
 8 "<link rel=\"preconnect\" href=\"https://github.githubassets.com\" crossorig…
 9 "<link rel=\"preconnect\" href=\"https://avatars.githubusercontent.com\">"   
10 "<link crossorigin=\"anonymous\" media=\"all\" rel=\"stylesheet\" href=\"htt…
# … with 1,119 more rows
…
